{
   "pagination": {
      "total_results": 53,
      "total_pages": 2,
      "first": {
         "href": "https://api.regal-bell.lite.cli.fun/v3/organizations?page=1&per_page=50"
      },
      "last": {
         "href": "https://api.regal-bell.lite.cli.fun/v3/organizations?page=2&per_page=50"
      },
      "next": null,
      "previous": {
         "href": "https://api.regal-bell.lite.cli.fun/v3/organizations?page=1&per_page=50"
      }
   },
   "resources": [
      {
         "guid": "4187348c-be36-4a51-8f8b-d272a63020eb",
         "created_at": "2019-04-11T23:08:45Z",
         "updated_at": "2019-04-11T23:08:45Z",
         "name": "org49",
         "links": {
            "self": {
               "href": "https://api.regal-bell.lite.cli.fun/v3/organizations/4187348c-be36-4a51-8f8b-d272a63020eb"
            }
         },
         "metadata": {
            "labels": {},
            "annotations": {}
         }
      },
      {
         "guid": "795d35ac-6a9a-4e5c-8ae7-0b165a1ae2b6",
         "created_at": "2019-04-11T23:08:46Z",
         "updated_at": "2019-04-11T23:08:46Z",
         "name": "org50",
         "links": {
            "self": {
               "href": "https://api.regal-bell.lite.cli.fun/v3/organizations/795d35ac-6a9a-4e5c-8ae7-0b165a1ae2b6"
            }
         },
         "metadata": {
            "labels": {},
            "annotations": {}
         }
      },
      {
         "guid": "530688c1-0b38-495e-9ded-f7099b98a64d",
         "created_at": "2019-04-11T23:08:46Z",
         "updated_at": "2019-04-11T23:08:46Z",
         "name": "org51",
         "links": {
            "self": {
               "href": "https://api.regal-bell.lite.cli.fun/v3/organizations/530688c1-0b38-495e-9ded-f7099b98a64d"
            }
         },
         "metadata": {
            "labels": {},
            "annotations": {}
         }
      }
   ]
}
