{
   "pagination": {
      "total_results": 53,
      "total_pages": 2,
      "first": {
         "href": "%[1]s/v3/organizations?page=1&per_page=50"
      },
      "last": {
         "href": "%[1]s/v3/organizations?page=2&per_page=50"
      },
      "next": {
         "href": "%[1]s/v3/organizations?page=2&per_page=50"
      },
      "previous": null
   },
   "resources": [
      {
         "guid": "2358d710-b2f1-43fa-9ff3-b4f00f029cd9",
         "created_at": "2019-04-10T19:49:55Z",
         "updated_at": "2019-04-10T19:49:55Z",
         "name": "system",
         "links": {
            "self": {
               "href": "%[1]s/v3/organizations/2358d710-b2f1-43fa-9ff3-b4f00f029cd9"
            }
         },
         "metadata": {
            "labels": {},
            "annotations": {}
         }
      },
      {
         "guid": "d70505fb-b42e-4ae2-b2cf-90cee7ee9cfb",
         "created_at": "2019-04-11T23:08:16Z",
         "updated_at": "2019-04-11T23:08:16Z",
         "name": "org0",
         "links": {
            "self": {
               "href": "%[1]s/v3/organizations/d70505fb-b42e-4ae2-b2cf-90cee7ee9cfb"
            }
         },
         "metadata": {
            "labels": {},
            "annotations": {}
         }
      },
      {
         "guid": "0369a55b-e4ea-4365-a482-18b6c34c11d9",
         "created_at": "2019-04-11T23:08:17Z",
         "updated_at": "2019-04-11T23:08:17Z",
         "name": "org1",
         "links": {
            "self": {
               "href": "%[1]s/v3/organizations/0369a55b-e4ea-4365-a482-18b6c34c11d9"
            }
         },
         "metadata": {
            "labels": {},
            "annotations": {}
         }
      },
      {
         "guid": "1c87d022-dac2-442d-8877-abbb142ad1fe",
         "created_at": "2019-04-11T23:08:18Z",
         "updated_at": "2019-04-11T23:08:18Z",
         "name": "org2",
         "links": {
            "self": {
               "href": "%[1]s/v3/organizations/1c87d022-dac2-442d-8877-abbb142ad1fe"
            }
         },
         "metadata": {
            "labels": {},
            "annotations": {}
         }
      },
      {
         "guid": "b0231239-5f73-4567-ab94-d8d365961e20",
         "created_at": "2019-04-11T23:08:18Z",
         "updated_at": "2019-04-11T23:08:18Z",
         "name": "org3",
         "links": {
            "self": {
               "href": "%[1]s/v3/organizations/b0231239-5f73-4567-ab94-d8d365961e20"
            }
         },
         "metadata": {
            "labels": {},
            "annotations": {}
         }
      },
      {
         "guid": "668dd77e-c8dc-4921-a0e9-473c3737b16b",
         "created_at": "2019-04-11T23:08:19Z",
         "updated_at": "2019-04-11T23:08:19Z",
         "name": "org4",
         "links": {
            "self": {
               "href": "%[1]s/v3/organizations/668dd77e-c8dc-4921-a0e9-473c3737b16b"
            }
         },
         "metadata": {
            "labels": {},
            "annotations": {}
         }
      },
      {
         "guid": "e9c170c0-fa3e-4448-bcb4-6a2f43ada37b",
         "created_at": "2019-04-11T23:08:19Z",
         "updated_at": "2019-04-11T23:08:19Z",
         "name": "org5",
         "links": {
            "self": {
               "href": "%[1]s/v3/organizations/e9c170c0-fa3e-4448-bcb4-6a2f43ada37b"
            }
         },
         "metadata": {
            "labels": {},
            "annotations": {}
         }
      },
      {
         "guid": "b0bf32ba-0745-4a61-b30c-eb65bd3e9e64",
         "created_at": "2019-04-11T23:08:20Z",
         "updated_at": "2019-04-11T23:08:20Z",
         "name": "org6",
         "links": {
            "self": {
               "href": "%[1]s/v3/organizations/b0bf32ba-0745-4a61-b30c-eb65bd3e9e64"
            }
         },
         "metadata": {
            "labels": {},
            "annotations": {}
         }
      },
      {
         "guid": "ce06587e-9e89-46f0-85fe-280e69eebf0e",
         "created_at": "2019-04-11T23:08:20Z",
         "updated_at": "2019-04-11T23:08:20Z",
         "name": "org7",
         "links": {
            "self": {
               "href": "%[1]s/v3/organizations/ce06587e-9e89-46f0-85fe-280e69eebf0e"
            }
         },
         "metadata": {
            "labels": {},
            "annotations": {}
         }
      },
      {
         "guid": "65020954-072b-4c14-9945-1932c2b89e3f",
         "created_at": "2019-04-11T23:08:21Z",
         "updated_at": "2019-04-11T23:08:21Z",
         "name": "org8",
         "links": {
            "self": {
               "href": "%[1]s/v3/organizations/65020954-072b-4c14-9945-1932c2b89e3f"
            }
         },
         "metadata": {
            "labels": {},
            "annotations": {}
         }
      },
      {
         "guid": "a0c7921f-aec3-4315-88ef-a865a2363cfd",
         "created_at": "2019-04-11T23:08:22Z",
         "updated_at": "2019-04-11T23:08:22Z",
         "name": "org9",
         "links": {
            "self": {
               "href": "%[1]s/v3/organizations/a0c7921f-aec3-4315-88ef-a865a2363cfd"
            }
         },
         "metadata": {
            "labels": {},
            "annotations": {}
         }
      },
      {
         "guid": "ff3fd674-8ca0-4294-b4fb-a3ccd2a3043e",
         "created_at": "2019-04-11T23:08:22Z",
         "updated_at": "2019-04-11T23:08:22Z",
         "name": "org10",
         "links": {
            "self": {
               "href": "%[1]s/v3/organizations/ff3fd674-8ca0-4294-b4fb-a3ccd2a3043e"
            }
         },
         "metadata": {
            "labels": {},
            "annotations": {}
         }
      },
      {
         "guid": "be19cccb-4a3e-43e9-be64-ccd606fda52b",
         "created_at": "2019-04-11T23:08:23Z",
         "updated_at": "2019-04-11T23:08:23Z",
         "name": "org11",
         "links": {
            "self": {
               "href": "%[1]s/v3/organizations/be19cccb-4a3e-43e9-be64-ccd606fda52b"
            }
         },
         "metadata": {
            "labels": {},
            "annotations": {}
         }
      },
      {
         "guid": "a892ea02-049b-4e0a-8aec-4af496fa49c9",
         "created_at": "2019-04-11T23:08:24Z",
         "updated_at": "2019-04-11T23:08:24Z",
         "name": "org12",
         "links": {
            "self": {
               "href": "%[1]s/v3/organizations/a892ea02-049b-4e0a-8aec-4af496fa49c9"
            }
         },
         "metadata": {
            "labels": {},
            "annotations": {}
         }
      },
      {
         "guid": "076907eb-5a50-4a41-acf3-ecb043d1e759",
         "created_at": "2019-04-11T23:08:24Z",
         "updated_at": "2019-04-11T23:08:24Z",
         "name": "org13",
         "links": {
            "self": {
               "href": "%[1]s/v3/organizations/076907eb-5a50-4a41-acf3-ecb043d1e759"
            }
         },
         "metadata": {
            "labels": {},
            "annotations": {}
         }
      },
      {
         "guid": "7377f350-54b1-4de4-99ee-51f4bdc5d571",
         "created_at": "2019-04-11T23:08:25Z",
         "updated_at": "2019-04-11T23:08:25Z",
         "name": "org14",
         "links": {
            "self": {
               "href": "%[1]s/v3/organizations/7377f350-54b1-4de4-99ee-51f4bdc5d571"
            }
         },
         "metadata": {
            "labels": {},
            "annotations": {}
         }
      },
      {
         "guid": "f67e630a-17e5-4d73-ac66-a05dc2b69079",
         "created_at": "2019-04-11T23:08:25Z",
         "updated_at": "2019-04-11T23:08:25Z",
         "name": "org15",
         "links": {
            "self": {
               "href": "%[1]s/v3/organizations/f67e630a-17e5-4d73-ac66-a05dc2b69079"
            }
         },
         "metadata": {
            "labels": {},
            "annotations": {}
         }
      },
      {
         "guid": "ba1c2790-98c4-4bf3-b801-bcc0d68c5e06",
         "created_at": "2019-04-11T23:08:26Z",
         "updated_at": "2019-04-11T23:08:26Z",
         "name": "org16",
         "links": {
            "self": {
               "href": "%[1]s/v3/organizations/ba1c2790-98c4-4bf3-b801-bcc0d68c5e06"
            }
         },
         "metadata": {
            "labels": {},
            "annotations": {}
         }
      },
      {
         "guid": "081940ad-8c06-4994-aed2-70b78ca9d86b",
         "created_at": "2019-04-11T23:08:26Z",
         "updated_at": "2019-04-11T23:08:26Z",
         "name": "org17",
         "links": {
            "self": {
               "href": "%[1]s/v3/organizations/081940ad-8c06-4994-aed2-70b78ca9d86b"
            }
         },
         "metadata": {
            "labels": {},
            "annotations": {}
         }
      },
      {
         "guid": "e67d1bae-7f5e-4133-92cc-473aa0a7c255",
         "created_at": "2019-04-11T23:08:27Z",
         "updated_at": "2019-04-11T23:08:27Z",
         "name": "org18",
         "links": {
            "self": {
               "href": "%[1]s/v3/organizations/e67d1bae-7f5e-4133-92cc-473aa0a7c255"
            }
         },
         "metadata": {
            "labels": {},
            "annotations": {}
         }
      },
      {
         "guid": "5561a942-307c-48e6-88e8-36dee887dba7",
         "created_at": "2019-04-11T23:08:28Z",
         "updated_at": "2019-04-11T23:08:28Z",
         "name": "org19",
         "links": {
            "self": {
               "href": "%[1]s/v3/organizations/5561a942-307c-48e6-88e8-36dee887dba7"
            }
         },
         "metadata": {
            "labels": {},
            "annotations": {}
         }
      },
      {
         "guid": "f6653aac-938e-4469-9a66-56a02796412b",
         "created_at": "2019-04-11T23:08:28Z",
         "updated_at": "2019-04-11T23:08:28Z",
         "name": "org20",
         "links": {
            "self": {
               "href": "%[1]s/v3/organizations/f6653aac-938e-4469-9a66-56a02796412b"
            }
         },
         "metadata": {
            "labels": {},
            "annotations": {}
         }
      },
      {
         "guid": "acabac64-536d-4d48-bb0c-d334e8ed767d",
         "created_at": "2019-04-11T23:08:29Z",
         "updated_at": "2019-04-11T23:08:29Z",
         "name": "org21",
         "links": {
            "self": {
               "href": "%[1]s/v3/organizations/acabac64-536d-4d48-bb0c-d334e8ed767d"
            }
         },
         "metadata": {
            "labels": {},
            "annotations": {}
         }
      },
      {
         "guid": "de7089f4-ede1-4b2c-af12-074baa814e91",
         "created_at": "2019-04-11T23:08:29Z",
         "updated_at": "2019-04-11T23:08:29Z",
         "name": "org22",
         "links": {
            "self": {
               "href": "%[1]s/v3/organizations/de7089f4-ede1-4b2c-af12-074baa814e91"
            }
         },
         "metadata": {
            "labels": {},
            "annotations": {}
         }
      },
      {
         "guid": "9005781f-08ed-4ea8-84b1-6b97301c20e1",
         "created_at": "2019-04-11T23:08:30Z",
         "updated_at": "2019-04-11T23:08:30Z",
         "name": "org23",
         "links": {
            "self": {
               "href": "%[1]s/v3/organizations/9005781f-08ed-4ea8-84b1-6b97301c20e1"
            }
         },
         "metadata": {
            "labels": {},
            "annotations": {}
         }
      },
      {
         "guid": "b628ef93-3583-4272-856f-29e30dbe9aec",
         "created_at": "2019-04-11T23:08:31Z",
         "updated_at": "2019-04-11T23:08:31Z",
         "name": "org24",
         "links": {
            "self": {
               "href": "%[1]s/v3/organizations/b628ef93-3583-4272-856f-29e30dbe9aec"
            }
         },
         "metadata": {
            "labels": {},
            "annotations": {}
         }
      },
      {
         "guid": "236ba664-62d9-4640-bac4-65ebaf1eaa82",
         "created_at": "2019-04-11T23:08:31Z",
         "updated_at": "2019-04-11T23:08:31Z",
         "name": "org25",
         "links": {
            "self": {
               "href": "%[1]s/v3/organizations/236ba664-62d9-4640-bac4-65ebaf1eaa82"
            }
         },
         "metadata": {
            "labels": {},
            "annotations": {}
         }
      },
      {
         "guid": "eb527eeb-1720-478b-93d3-54d55acb0139",
         "created_at": "2019-04-11T23:08:32Z",
         "updated_at": "2019-04-11T23:08:32Z",
         "name": "org26",
         "links": {
            "self": {
               "href": "%[1]s/v3/organizations/eb527eeb-1720-478b-93d3-54d55acb0139"
            }
         },
         "metadata": {
            "labels": {},
            "annotations": {}
         }
      },
      {
         "guid": "d9909b56-30e0-4a77-bd17-0eebe16a3a00",
         "created_at": "2019-04-11T23:08:32Z",
         "updated_at": "2019-04-11T23:08:32Z",
         "name": "org27",
         "links": {
            "self": {
               "href": "%[1]s/v3/organizations/d9909b56-30e0-4a77-bd17-0eebe16a3a00"
            }
         },
         "metadata": {
            "labels": {},
            "annotations": {}
         }
      },
      {
         "guid": "0b4dec0c-c70f-4adc-9b29-ce50306ea1b6",
         "created_at": "2019-04-11T23:08:33Z",
         "updated_at": "2019-04-11T23:08:33Z",
         "name": "org28",
         "links": {
            "self": {
               "href": "%[1]s/v3/organizations/0b4dec0c-c70f-4adc-9b29-ce50306ea1b6"
            }
         },
         "metadata": {
            "labels": {},
            "annotations": {}
         }
      },
      {
         "guid": "f7cc765e-ec1b-42f2-89ea-b3095339217b",
         "created_at": "2019-04-11T23:08:34Z",
         "updated_at": "2019-04-11T23:08:34Z",
         "name": "org29",
         "links": {
            "self": {
               "href": "%[1]s/v3/organizations/f7cc765e-ec1b-42f2-89ea-b3095339217b"
            }
         },
         "metadata": {
            "labels": {},
            "annotations": {}
         }
      },
      {
         "guid": "89b02894-4280-4e35-a249-681e65ba3809",
         "created_at": "2019-04-11T23:08:35Z",
         "updated_at": "2019-04-11T23:08:35Z",
         "name": "org30",
         "links": {
            "self": {
               "href": "%[1]s/v3/organizations/89b02894-4280-4e35-a249-681e65ba3809"
            }
         },
         "metadata": {
            "labels": {},
            "annotations": {}
         }
      },
      {
         "guid": "20b9a2ab-b0e6-459c-a2a6-ffad598d517c",
         "created_at": "2019-04-11T23:08:35Z",
         "updated_at": "2019-04-11T23:08:35Z",
         "name": "org31",
         "links": {
            "self": {
               "href": "%[1]s/v3/organizations/20b9a2ab-b0e6-459c-a2a6-ffad598d517c"
            }
         },
         "metadata": {
            "labels": {},
            "annotations": {}
         }
      },
      {
         "guid": "d65f583e-4e13-48f5-8769-9bc1feb78bd4",
         "created_at": "2019-04-11T23:08:36Z",
         "updated_at": "2019-04-11T23:08:36Z",
         "name": "org32",
         "links": {
            "self": {
               "href": "%[1]s/v3/organizations/d65f583e-4e13-48f5-8769-9bc1feb78bd4"
            }
         },
         "metadata": {
            "labels": {},
            "annotations": {}
         }
      },
      {
         "guid": "5682315e-c5b2-434c-9d0a-76b0959dfe86",
         "created_at": "2019-04-11T23:08:36Z",
         "updated_at": "2019-04-11T23:08:36Z",
         "name": "org33",
         "links": {
            "self": {
               "href": "%[1]s/v3/organizations/5682315e-c5b2-434c-9d0a-76b0959dfe86"
            }
         },
         "metadata": {
            "labels": {},
            "annotations": {}
         }
      },
      {
         "guid": "dfe82c27-a7b5-4d5d-bb07-caf772cdf794",
         "created_at": "2019-04-11T23:08:37Z",
         "updated_at": "2019-04-11T23:08:37Z",
         "name": "org34",
         "links": {
            "self": {
               "href": "%[1]s/v3/organizations/dfe82c27-a7b5-4d5d-bb07-caf772cdf794"
            }
         },
         "metadata": {
            "labels": {},
            "annotations": {}
         }
      },
      {
         "guid": "4c39b4a5-74ff-4c82-ac03-1914cfd0dbee",
         "created_at": "2019-04-11T23:08:38Z",
         "updated_at": "2019-04-11T23:08:38Z",
         "name": "org35",
         "links": {
            "self": {
               "href": "%[1]s/v3/organizations/4c39b4a5-74ff-4c82-ac03-1914cfd0dbee"
            }
         },
         "metadata": {
            "labels": {},
            "annotations": {}
         }
      },
      {
         "guid": "4e8ee345-fec3-4d5e-8980-ba15d1537afb",
         "created_at": "2019-04-11T23:08:38Z",
         "updated_at": "2019-04-11T23:08:38Z",
         "name": "org36",
         "links": {
            "self": {
               "href": "%[1]s/v3/organizations/4e8ee345-fec3-4d5e-8980-ba15d1537afb"
            }
         },
         "metadata": {
            "labels": {},
            "annotations": {}
         }
      },
      {
         "guid": "2be72ea5-92a1-4e79-8c25-33ec2ca341c8",
         "created_at": "2019-04-11T23:08:39Z",
         "updated_at": "2019-04-11T23:08:39Z",
         "name": "org37",
         "links": {
            "self": {
               "href": "%[1]s/v3/organizations/2be72ea5-92a1-4e79-8c25-33ec2ca341c8"
            }
         },
         "metadata": {
            "labels": {},
            "annotations": {}
         }
      },
      {
         "guid": "397350f3-4653-484f-a76d-20336f4b3038",
         "created_at": "2019-04-11T23:08:39Z",
         "updated_at": "2019-04-11T23:08:39Z",
         "name": "org38",
         "links": {
            "self": {
               "href": "%[1]s/v3/organizations/397350f3-4653-484f-a76d-20336f4b3038"
            }
         },
         "metadata": {
            "labels": {},
            "annotations": {}
         }
      },
      {
         "guid": "b82b1c4b-e262-4c51-9d5d-adb09d1acf95",
         "created_at": "2019-04-11T23:08:40Z",
         "updated_at": "2019-04-11T23:08:40Z",
         "name": "org39",
         "links": {
            "self": {
               "href": "%[1]s/v3/organizations/b82b1c4b-e262-4c51-9d5d-adb09d1acf95"
            }
         },
         "metadata": {
            "labels": {},
            "annotations": {}
         }
      },
      {
         "guid": "e327a0aa-5d1e-4a2d-9c45-d727ccbed9db",
         "created_at": "2019-04-11T23:08:40Z",
         "updated_at": "2019-04-11T23:08:40Z",
         "name": "org40",
         "links": {
            "self": {
               "href": "%[1]s/v3/organizations/e327a0aa-5d1e-4a2d-9c45-d727ccbed9db"
            }
         },
         "metadata": {
            "labels": {},
            "annotations": {}
         }
      },
      {
         "guid": "6e5f2964-0d23-4b78-a8a1-fdb1f26b5e40",
         "created_at": "2019-04-11T23:08:41Z",
         "updated_at": "2019-04-11T23:08:41Z",
         "name": "org41",
         "links": {
            "self": {
               "href": "%[1]s/v3/organizations/6e5f2964-0d23-4b78-a8a1-fdb1f26b5e40"
            }
         },
         "metadata": {
            "labels": {},
            "annotations": {}
         }
      },
      {
         "guid": "706fe4ce-0c0f-4a0b-b15c-9dd0d8c475c0",
         "created_at": "2019-04-11T23:08:41Z",
         "updated_at": "2019-04-11T23:08:41Z",
         "name": "org42",
         "links": {
            "self": {
               "href": "%[1]s/v3/organizations/706fe4ce-0c0f-4a0b-b15c-9dd0d8c475c0"
            }
         },
         "metadata": {
            "labels": {},
            "annotations": {}
         }
      },
      {
         "guid": "e3bb36ba-12bc-498f-9497-888f7289955c",
         "created_at": "2019-04-11T23:08:42Z",
         "updated_at": "2019-04-11T23:08:42Z",
         "name": "org43",
         "links": {
            "self": {
               "href": "%[1]s/v3/organizations/e3bb36ba-12bc-498f-9497-888f7289955c"
            }
         },
         "metadata": {
            "labels": {},
            "annotations": {}
         }
      },
      {
         "guid": "ad3d6df4-8bf2-4578-8084-59b630188dcb",
         "created_at": "2019-04-11T23:08:42Z",
         "updated_at": "2019-04-11T23:08:42Z",
         "name": "org44",
         "links": {
            "self": {
               "href": "%[1]s/v3/organizations/ad3d6df4-8bf2-4578-8084-59b630188dcb"
            }
         },
         "metadata": {
            "labels": {},
            "annotations": {}
         }
      },
      {
         "guid": "2245f421-9dab-44c2-8465-faf096198b1d",
         "created_at": "2019-04-11T23:08:43Z",
         "updated_at": "2019-04-11T23:08:43Z",
         "name": "org45",
         "links": {
            "self": {
               "href": "%[1]s/v3/organizations/2245f421-9dab-44c2-8465-faf096198b1d"
            }
         },
         "metadata": {
            "labels": {},
            "annotations": {}
         }
      },
      {
         "guid": "a32fd398-53a2-4a0c-8bf5-3a02f90055f8",
         "created_at": "2019-04-11T23:08:43Z",
         "updated_at": "2019-04-11T23:08:43Z",
         "name": "org46",
         "links": {
            "self": {
               "href": "%[1]s/v3/organizations/a32fd398-53a2-4a0c-8bf5-3a02f90055f8"
            }
         },
         "metadata": {
            "labels": {},
            "annotations": {}
         }
      },
      {
         "guid": "c3ad815f-9a11-4eba-ac92-953b8b4f15a8",
         "created_at": "2019-04-11T23:08:44Z",
         "updated_at": "2019-04-11T23:08:44Z",
         "name": "org47",
         "links": {
            "self": {
               "href": "%[1]s/v3/organizations/c3ad815f-9a11-4eba-ac92-953b8b4f15a8"
            }
         },
         "metadata": {
            "labels": {},
            "annotations": {}
         }
      },
      {
         "guid": "0d831a42-8e2a-4add-a5aa-d1e0011e3747",
         "created_at": "2019-04-11T23:08:45Z",
         "updated_at": "2019-04-11T23:08:45Z",
         "name": "org48",
         "links": {
            "self": {
               "href": "%[1]s/v3/organizations/0d831a42-8e2a-4add-a5aa-d1e0011e3747"
            }
         },
         "metadata": {
            "labels": {},
            "annotations": {}
         }
      }
   ]
}
